{
  "$schema": "http://json-schema.org/draft-04/schema#",
  "type": "object",
  "properties": {
    "count": {
      "type": "integer"
    },
    "recipes": {
      "type": "array",
      "items": [
        {
          "type": "object",
          "properties": {
            "publisher": {
              "type": "string"
            },
            "f2f_url": {
              "type": "string"
            },
            "title": {
              "type": "string"
            },
            "source_url": {
              "type": "string"
            },
            "recipe_id": {
              "type": "string"
            },
            "image_url": {
              "type": "string"
            },
            "social_rank": {
              "type": "number"
            },
            "publisher_url": {
              "type": "string"
            }
          },
          "required": [
            "publisher",
            "f2f_url",
            "title",
            "source_url",
            "recipe_id",
            "image_url",
            "social_rank",
            "publisher_url"
          ]
        },
        {
          "type": "object",
          "properties": {
            "publisher": {
              "type": "string"
            },
            "f2f_url": {
              "type": "string"
            },
            "title": {
              "type": "string"
            },
            "source_url": {
              "type": "string"
            },
            "recipe_id": {
              "type": "string"
            },
            "image_url": {
              "type": "string"
            },
            "social_rank": {
              "type": "number"
            },
            "publisher_url": {
              "type": "string"
            }
          },
          "required": [
            "publisher",
            "f2f_url",
            "title",
            "source_url",
            "recipe_id",
            "image_url",
            "social_rank",
            "publisher_url"
          ]
        },
        {
          "type": "object",
          "properties": {
            "publisher": {
              "type": "string"
            },
            "f2f_url": {
              "type": "string"
            },
            "title": {
              "type": "string"
            },
            "source_url": {
              "type": "string"
            },
            "recipe_id": {
              "type": "string"
            },
            "image_url": {
              "type": "string"
            },
            "social_rank": {
              "type": "number"
            },
            "publisher_url": {
              "type": "string"
            }
          },
          "required": [
            "publisher",
            "f2f_url",
            "title",
            "source_url",
            "recipe_id",
            "image_url",
            "social_rank",
            "publisher_url"
          ]
        },
        {
          "type": "object",
          "properties": {
            "publisher": {
              "type": "string"
            },
            "f2f_url": {
              "type": "string"
            },
            "title": {
              "type": "string"
            },
            "source_url": {
              "type": "string"
            },
            "recipe_id": {
              "type": "string"
            },
            "image_url": {
              "type": "string"
            },
            "social_rank": {
              "type": "number"
            },
            "publisher_url": {
              "type": "string"
            }
          },
          "required": [
            "publisher",
            "f2f_url",
            "title",
            "source_url",
            "recipe_id",
            "image_url",
            "social_rank",
            "publisher_url"
          ]
        },
        {
          "type": "object",
          "properties": {
            "publisher": {
              "type": "string"
            },
            "f2f_url": {
              "type": "string"
            },
            "title": {
              "type": "string"
            },
            "source_url": {
              "type": "string"
            },
            "recipe_id": {
              "type": "string"
            },
            "image_url": {
              "type": "string"
            },
            "social_rank": {
              "type": "number"
            },
            "publisher_url": {
              "type": "string"
            }
          },
          "required": [
            "publisher",
            "f2f_url",
            "title",
            "source_url",
            "recipe_id",
            "image_url",
            "social_rank",
            "publisher_url"
          ]
        },
        {
          "type": "object",
          "properties": {
            "publisher": {
              "type": "string"
            },
            "f2f_url": {
              "type": "string"
            },
            "title": {
              "type": "string"
            },
            "source_url": {
              "type": "string"
            },
            "recipe_id": {
              "type": "string"
            },
            "image_url": {
              "type": "string"
            },
            "social_rank": {
              "type": "number"
            },
            "publisher_url": {
              "type": "string"
            }
          },
          "required": [
            "publisher",
            "f2f_url",
            "title",
            "source_url",
            "recipe_id",
            "image_url",
            "social_rank",
            "publisher_url"
          ]
        },
        {
          "type": "object",
          "properties": {
            "publisher": {
              "type": "string"
            },
            "f2f_url": {
              "type": "string"
            },
            "title": {
              "type": "string"
            },
            "source_url": {
              "type": "string"
            },
            "recipe_id": {
              "type": "string"
            },
            "image_url": {
              "type": "string"
            },
            "social_rank": {
              "type": "number"
            },
            "publisher_url": {
              "type": "string"
            }
          },
          "required": [
            "publisher",
            "f2f_url",
            "title",
            "source_url",
            "recipe_id",
            "image_url",
            "social_rank",
            "publisher_url"
          ]
        },
        {
          "type": "object",
          "properties": {
            "publisher": {
              "type": "string"
            },
            "f2f_url": {
              "type": "string"
            },
            "title": {
              "type": "string"
            },
            "source_url": {
              "type": "string"
            },
            "recipe_id": {
              "type": "string"
            },
            "image_url": {
              "type": "string"
            },
            "social_rank": {
              "type": "number"
            },
            "publisher_url": {
              "type": "string"
            }
          },
          "required": [
            "publisher",
            "f2f_url",
            "title",
            "source_url",
            "recipe_id",
            "image_url",
            "social_rank",
            "publisher_url"
          ]
        },
        {
          "type": "object",
          "properties": {
            "publisher": {
              "type": "string"
            },
            "f2f_url": {
              "type": "string"
            },
            "title": {
              "type": "string"
            },
            "source_url": {
              "type": "string"
            },
            "recipe_id": {
              "type": "string"
            },
            "image_url": {
              "type": "string"
            },
            "social_rank": {
              "type": "number"
            },
            "publisher_url": {
              "type": "string"
            }
          },
          "required": [
            "publisher",
            "f2f_url",
            "title",
            "source_url",
            "recipe_id",
            "image_url",
            "social_rank",
            "publisher_url"
          ]
        },
        {
          "type": "object",
          "properties": {
            "publisher": {
              "type": "string"
            },
            "f2f_url": {
              "type": "string"
            },
            "title": {
              "type": "string"
            },
            "source_url": {
              "type": "string"
            },
            "recipe_id": {
              "type": "string"
            },
            "image_url": {
              "type": "string"
            },
            "social_rank": {
              "type": "number"
            },
            "publisher_url": {
              "type": "string"
            }
          },
          "required": [
            "publisher",
            "f2f_url",
            "title",
            "source_url",
            "recipe_id",
            "image_url",
            "social_rank",
            "publisher_url"
          ]
        },
        {
          "type": "object",
          "properties": {
            "publisher": {
              "type": "string"
            },
            "f2f_url": {
              "type": "string"
            },
            "title": {
              "type": "string"
            },
            "source_url": {
              "type": "string"
            },
            "recipe_id": {
              "type": "string"
            },
            "image_url": {
              "type": "string"
            },
            "social_rank": {
              "type": "number"
            },
            "publisher_url": {
              "type": "string"
            }
          },
          "required": [
            "publisher",
            "f2f_url",
            "title",
            "source_url",
            "recipe_id",
            "image_url",
            "social_rank",
            "publisher_url"
          ]
        },
        {
          "type": "object",
          "properties": {
            "publisher": {
              "type": "string"
            },
            "f2f_url": {
              "type": "string"
            },
            "title": {
              "type": "string"
            },
            "source_url": {
              "type": "string"
            },
            "recipe_id": {
              "type": "string"
            },
            "image_url": {
              "type": "string"
            },
            "social_rank": {
              "type": "number"
            },
            "publisher_url": {
              "type": "string"
            }
          },
          "required": [
            "publisher",
            "f2f_url",
            "title",
            "source_url",
            "recipe_id",
            "image_url",
            "social_rank",
            "publisher_url"
          ]
        },
        {
          "type": "object",
          "properties": {
            "publisher": {
              "type": "string"
            },
            "f2f_url": {
              "type": "string"
            },
            "title": {
              "type": "string"
            },
            "source_url": {
              "type": "string"
            },
            "recipe_id": {
              "type": "string"
            },
            "image_url": {
              "type": "string"
            },
            "social_rank": {
              "type": "number"
            },
            "publisher_url": {
              "type": "string"
            }
          },
          "required": [
            "publisher",
            "f2f_url",
            "title",
            "source_url",
            "recipe_id",
            "image_url",
            "social_rank",
            "publisher_url"
          ]
        },
        {
          "type": "object",
          "properties": {
            "publisher": {
              "type": "string"
            },
            "f2f_url": {
              "type": "string"
            },
            "title": {
              "type": "string"
            },
            "source_url": {
              "type": "string"
            },
            "recipe_id": {
              "type": "string"
            },
            "image_url": {
              "type": "string"
            },
            "social_rank": {
              "type": "number"
            },
            "publisher_url": {
              "type": "string"
            }
          },
          "required": [
            "publisher",
            "f2f_url",
            "title",
            "source_url",
            "recipe_id",
            "image_url",
            "social_rank",
            "publisher_url"
          ]
        },
        {
          "type": "object",
          "properties": {
            "publisher": {
              "type": "string"
            },
            "f2f_url": {
              "type": "string"
            },
            "title": {
              "type": "string"
            },
            "source_url": {
              "type": "string"
            },
            "recipe_id": {
              "type": "string"
            },
            "image_url": {
              "type": "string"
            },
            "social_rank": {
              "type": "number"
            },
            "publisher_url": {
              "type": "string"
            }
          },
          "required": [
            "publisher",
            "f2f_url",
            "title",
            "source_url",
            "recipe_id",
            "image_url",
            "social_rank",
            "publisher_url"
          ]
        },
        {
          "type": "object",
          "properties": {
            "publisher": {
              "type": "string"
            },
            "f2f_url": {
              "type": "string"
            },
            "title": {
              "type": "string"
            },
            "source_url": {
              "type": "string"
            },
            "recipe_id": {
              "type": "string"
            },
            "image_url": {
              "type": "string"
            },
            "social_rank": {
              "type": "number"
            },
            "publisher_url": {
              "type": "string"
            }
          },
          "required": [
            "publisher",
            "f2f_url",
            "title",
            "source_url",
            "recipe_id",
            "image_url",
            "social_rank",
            "publisher_url"
          ]
        },
        {
          "type": "object",
          "properties": {
            "publisher": {
              "type": "string"
            },
            "f2f_url": {
              "type": "string"
            },
            "title": {
              "type": "string"
            },
            "source_url": {
              "type": "string"
            },
            "recipe_id": {
              "type": "string"
            },
            "image_url": {
              "type": "string"
            },
            "social_rank": {
              "type": "number"
            },
            "publisher_url": {
              "type": "string"
            }
          },
          "required": [
            "publisher",
            "f2f_url",
            "title",
            "source_url",
            "recipe_id",
            "image_url",
            "social_rank",
            "publisher_url"
          ]
        },
        {
          "type": "object",
          "properties": {
            "publisher": {
              "type": "string"
            },
            "f2f_url": {
              "type": "string"
            },
            "title": {
              "type": "string"
            },
            "source_url": {
              "type": "string"
            },
            "recipe_id": {
              "type": "string"
            },
            "image_url": {
              "type": "string"
            },
            "social_rank": {
              "type": "number"
            },
            "publisher_url": {
              "type": "string"
            }
          },
          "required": [
            "publisher",
            "f2f_url",
            "title",
            "source_url",
            "recipe_id",
            "image_url",
            "social_rank",
            "publisher_url"
          ]
        },
        {
          "type": "object",
          "properties": {
            "publisher": {
              "type": "string"
            },
            "f2f_url": {
              "type": "string"
            },
            "title": {
              "type": "string"
            },
            "source_url": {
              "type": "string"
            },
            "recipe_id": {
              "type": "string"
            },
            "image_url": {
              "type": "string"
            },
            "social_rank": {
              "type": "number"
            },
            "publisher_url": {
              "type": "string"
            }
          },
          "required": [
            "publisher",
            "f2f_url",
            "title",
            "source_url",
            "recipe_id",
            "image_url",
            "social_rank",
            "publisher_url"
          ]
        },
        {
          "type": "object",
          "properties": {
            "publisher": {
              "type": "string"
            },
            "f2f_url": {
              "type": "string"
            },
            "title": {
              "type": "string"
            },
            "source_url": {
              "type": "string"
            },
            "recipe_id": {
              "type": "string"
            },
            "image_url": {
              "type": "string"
            },
            "social_rank": {
              "type": "number"
            },
            "publisher_url": {
              "type": "string"
            }
          },
          "required": [
            "publisher",
            "f2f_url",
            "title",
            "source_url",
            "recipe_id",
            "image_url",
            "social_rank",
            "publisher_url"
          ]
        },
        {
          "type": "object",
          "properties": {
            "publisher": {
              "type": "string"
            },
            "f2f_url": {
              "type": "string"
            },
            "title": {
              "type": "string"
            },
            "source_url": {
              "type": "string"
            },
            "recipe_id": {
              "type": "string"
            },
            "image_url": {
              "type": "string"
            },
            "social_rank": {
              "type": "number"
            },
            "publisher_url": {
              "type": "string"
            }
          },
          "required": [
            "publisher",
            "f2f_url",
            "title",
            "source_url",
            "recipe_id",
            "image_url",
            "social_rank",
            "publisher_url"
          ]
        },
        {
          "type": "object",
          "properties": {
            "publisher": {
              "type": "string"
            },
            "f2f_url": {
              "type": "string"
            },
            "title": {
              "type": "string"
            },
            "source_url": {
              "type": "string"
            },
            "recipe_id": {
              "type": "string"
            },
            "image_url": {
              "type": "string"
            },
            "social_rank": {
              "type": "number"
            },
            "publisher_url": {
              "type": "string"
            }
          },
          "required": [
            "publisher",
            "f2f_url",
            "title",
            "source_url",
            "recipe_id",
            "image_url",
            "social_rank",
            "publisher_url"
          ]
        },
        {
          "type": "object",
          "properties": {
            "publisher": {
              "type": "string"
            },
            "f2f_url": {
              "type": "string"
            },
            "title": {
              "type": "string"
            },
            "source_url": {
              "type": "string"
            },
            "recipe_id": {
              "type": "string"
            },
            "image_url": {
              "type": "string"
            },
            "social_rank": {
              "type": "number"
            },
            "publisher_url": {
              "type": "string"
            }
          },
          "required": [
            "publisher",
            "f2f_url",
            "title",
            "source_url",
            "recipe_id",
            "image_url",
            "social_rank",
            "publisher_url"
          ]
        },
        {
          "type": "object",
          "properties": {
            "publisher": {
              "type": "string"
            },
            "f2f_url": {
              "type": "string"
            },
            "title": {
              "type": "string"
            },
            "source_url": {
              "type": "string"
            },
            "recipe_id": {
              "type": "string"
            },
            "image_url": {
              "type": "string"
            },
            "social_rank": {
              "type": "number"
            },
            "publisher_url": {
              "type": "string"
            }
          },
          "required": [
            "publisher",
            "f2f_url",
            "title",
            "source_url",
            "recipe_id",
            "image_url",
            "social_rank",
            "publisher_url"
          ]
        },
        {
          "type": "object",
          "properties": {
            "publisher": {
              "type": "string"
            },
            "f2f_url": {
              "type": "string"
            },
            "title": {
              "type": "string"
            },
            "source_url": {
              "type": "string"
            },
            "recipe_id": {
              "type": "string"
            },
            "image_url": {
              "type": "string"
            },
            "social_rank": {
              "type": "number"
            },
            "publisher_url": {
              "type": "string"
            }
          },
          "required": [
            "publisher",
            "f2f_url",
            "title",
            "source_url",
            "recipe_id",
            "image_url",
            "social_rank",
            "publisher_url"
          ]
        },
        {
          "type": "object",
          "properties": {
            "publisher": {
              "type": "string"
            },
            "f2f_url": {
              "type": "string"
            },
            "title": {
              "type": "string"
            },
            "source_url": {
              "type": "string"
            },
            "recipe_id": {
              "type": "string"
            },
            "image_url": {
              "type": "string"
            },
            "social_rank": {
              "type": "number"
            },
            "publisher_url": {
              "type": "string"
            }
          },
          "required": [
            "publisher",
            "f2f_url",
            "title",
            "source_url",
            "recipe_id",
            "image_url",
            "social_rank",
            "publisher_url"
          ]
        },
        {
          "type": "object",
          "properties": {
            "publisher": {
              "type": "string"
            },
            "f2f_url": {
              "type": "string"
            },
            "title": {
              "type": "string"
            },
            "source_url": {
              "type": "string"
            },
            "recipe_id": {
              "type": "string"
            },
            "image_url": {
              "type": "string"
            },
            "social_rank": {
              "type": "number"
            },
            "publisher_url": {
              "type": "string"
            }
          },
          "required": [
            "publisher",
            "f2f_url",
            "title",
            "source_url",
            "recipe_id",
            "image_url",
            "social_rank",
            "publisher_url"
          ]
        },
        {
          "type": "object",
          "properties": {
            "publisher": {
              "type": "string"
            },
            "f2f_url": {
              "type": "string"
            },
            "title": {
              "type": "string"
            },
            "source_url": {
              "type": "string"
            },
            "recipe_id": {
              "type": "string"
            },
            "image_url": {
              "type": "string"
            },
            "social_rank": {
              "type": "number"
            },
            "publisher_url": {
              "type": "string"
            }
          },
          "required": [
            "publisher",
            "f2f_url",
            "title",
            "source_url",
            "recipe_id",
            "image_url",
            "social_rank",
            "publisher_url"
          ]
        },
        {
          "type": "object",
          "properties": {
            "publisher": {
              "type": "string"
            },
            "f2f_url": {
              "type": "string"
            },
            "title": {
              "type": "string"
            },
            "source_url": {
              "type": "string"
            },
            "recipe_id": {
              "type": "string"
            },
            "image_url": {
              "type": "string"
            },
            "social_rank": {
              "type": "number"
            },
            "publisher_url": {
              "type": "string"
            }
          },
          "required": [
            "publisher",
            "f2f_url",
            "title",
            "source_url",
            "recipe_id",
            "image_url",
            "social_rank",
            "publisher_url"
          ]
        },
        {
          "type": "object",
          "properties": {
            "publisher": {
              "type": "string"
            },
            "f2f_url": {
              "type": "string"
            },
            "title": {
              "type": "string"
            },
            "source_url": {
              "type": "string"
            },
            "recipe_id": {
              "type": "string"
            },
            "image_url": {
              "type": "string"
            },
            "social_rank": {
              "type": "number"
            },
            "publisher_url": {
              "type": "string"
            }
          },
          "required": [
            "publisher",
            "f2f_url",
            "title",
            "source_url",
            "recipe_id",
            "image_url",
            "social_rank",
            "publisher_url"
          ]
        }
      ]
    }
  },
  "required": [
    "count",
    "recipes"
  ]
}